Homework-I
…
The red line indicates the fit on the test set of the model trained
on the entire dataset. The blue line indicates the fit on the test set
of the model trained only on the train split of the dataset.

Model diagnostics

Let’s check for the three assumptions of the linear regression models
on the dataset it was trained on.

boston_train_aug <- augment(model_boston_train, new_data = boston_train)
boston_train_aug

## # A tibble: 404 × 4
##    .pred .resid  medv lstat
##    <dbl>  <dbl> <dbl> <dbl>
##  1 28.8  -6.82   22    6.48
##  2 23.6  -5.15   18.5 11.7 
##  3 31.6  18.4    50    3.7 
##  4 20.1  -2.06   18   15.4 
##  5  8.99  1.41   10.4 26.6 
##  6 19.2   0.727  19.9 16.3 
##  7 30.3  -7.81   22.5  4.97
##  8 21.8  -1.07   20.7 13.6 
##  9 21.3  -1.40   19.9 14.1 
## 10 30.8  19.2    50    4.45
## # ℹ 394 more rows
…
